apisirene_03_requetes_multicriteres • apisirene
…
Des exemples ?

Je souhaite obtenir la liste des boulangeries du 1er arrondissement
municipal de Marseille.

library("apisirene")
#> Si c'est votre premiere utilisation du package, il est recommande de lire les vignettes, ou de lancer la commande insee_sirene_aide()

insee_utils_siret_multi_make("DEPCOM:13201 & NAF:10.71C") |> 
    insee_get_siret_multi()
#> Votre requete concerne 180 entreprises ou etablissements
#>  Debut de traitement: 2025-09-27 14:34:19.256816
#> 2025-09-27 14:34:30.453244
#> Fin de traitement : 2025-09-27 14:34:30.45353
#> # A tibble: 180 × 37
#>    gSiren    gNic  gSiret     gStatutDiffEtb gDateCreaEtb gTreffEtb gAnneeEffEtb
#>    <chr>     <chr> <chr>      <lgl>          <chr>        <chr>     <chr>       
#>  1 057812018 00026 057812018… NA             1992-05-08   NN        NA          
#>  2 060804051 00013 060804051… NA             1960-01-01   00        2022        
#>  3 069802361 00050 069802361… NA             1982-06-01   NN        NA          
#>  4 073712630 00018 073712630… NA             1965-01-01   NN        NA          
#>  5 307188946 00015 307188946… NA             1900-01-01   NN        NA          
#>  6 307188946 00031 307188946… NA             1993-01-01   NN        NA          
#>  7 318151727 00019 318151727… NA             1980-01-01   NN        NA          
#>  8 319682563 00055 319682563… NA             1990-02-19   NN        NA          
#>  9 319682563 00063 319682563… NA             1990-02-19   NN        NA          
#> 10 322322827 00013 322322827… NA             1980-08-01   NN        NA          
#> # ℹ 170 more rows
#> # ℹ 30 more variables: gApeRmEtb <chr>, gDateDernTraitEtb <chr>,
#> #   gEtbSiege <lgl>, gNbPeriodEtb <int>, ulEtatAdm <chr>, ulDenom <chr>,
#> #   ulSigle <chr>, ulDenomUsuelle <chr>, ulCodeAPE <chr>, ulCJ <chr>,
#> #   aEtbDEPCOM <chr>, aEtbNumVoie <chr>, aEtbTypeVoie <chr>, aEtbLibVoie <chr>,
#> #   aEtbCodePostal <chr>, aEtbLibCom <chr>, aEtbCoordX <chr>, aEtbCoordY <chr>,
#> #   pDateFin <lgl>, pDateDeb <chr>, pEtatAdmEtb <chr>, pChgtEtatAdmEtb <lgl>, …
…
