insee_get_siret_multi — insee_get_siret_multi • apisirene
…
    un data.frame parse du resultat de la requete multicritères

    Examples

insee_get_siret_multi("https://api.insee.fr/api-sirene/3.11/siret?q=codeCommuneEtablissement%3A13*%20AND%20activitePrincipaleUniteLegale%3A10.71*&nombre=1000&curseur=*")
#> Votre requete concerne 5306 entreprises ou etablissements
#>  Debut de traitement: 2025-09-21 16:24:25.967732
#> 2025-09-21 16:25:31.774245
#> 2025-09-21 16:27:29.61538
#> 2025-09-21 16:28:16.007723
#> 2025-09-21 16:28:52.825284
#> 2025-09-21 16:29:03.65136
#> 2025-09-21 16:29:26.589684
#> Fin de traitement : 2025-09-21 16:29:26.590016
#> # A tibble: 5,306 × 37
#>    gSiren    gNic  gSiret     gStatutDiffEtb gDateCreaEtb gTreffEtb gAnneeEffEtb
#>    <chr>     <chr> <chr>      <lgl>          <chr>        <chr>     <chr>       
#>  1 016150484 00034 016150484… NA             1988-07-01   NA        NA          
#>  2 016150484 00075 016150484… NA             1992-04-16   NA        NA          
#>  3 056803455 00015 056803455… NA             1948-04-20   NA        NA          
#>  4 057800344 00012 057800344… NA             1957-01-01   NA        NA          
#>  5 057800344 00020 057800344… NA             1984-03-22   NA        NA          
#>  6 057810145 00011 057810145… NA             1957-01-01   NA        NA          
#>  7 057812018 00026 057812018… NA             1992-05-08   NA        NA          
#>  8 057812018 00034 057812018… NA             2000-01-01   NA        NA          
#>  9 058802901 00015 058802901… NA             1900-01-01   NA        NA          
#> 10 058802901 00023 058802901… NA             1985-11-12   NA        NA          
#> # ℹ 5,296 more rows
#> # ℹ 30 more variables: gApeRmEtb <chr>, gDateDernTraitEtb <chr>,
#> #   gEtbSiege <lgl>, gNbPeriodEtb <int>, ulEtatAdm <chr>, ulDenom <chr>,
#> #   ulSigle <chr>, ulDenomUsuelle <chr>, ulCodeAPE <chr>, ulCJ <chr>,
#> #   aEtbDEPCOM <chr>, aEtbNumVoie <chr>, aEtbTypeVoie <chr>, aEtbLibVoie <chr>,
#> #   aEtbCodePostal <chr>, aEtbLibCom <chr>, aEtbCoordX <chr>, aEtbCoordY <chr>,
#> #   pDateFin <lgl>, pDateDeb <chr>, pEtatAdmEtb <chr>, pChgtEtatAdmEtb <lgl>, …
…
